6 Data Wrangling and Cleaning (Part II) | Introduction to R
…
Now we have the same data frame but in a different format.

The figure below gives an example of the pivot process. We typically do not pivot the ID column, because that enables us to identify which participant’s score each variable. Let’s look at what happens if we do include ID in the cols argument

pivot_longer(
  wide_df,
  cols = ID:Openness, #pivot everything
  values_to = "Response"
)

## # A tibble: 60 × 2
##    name              Response
##    <chr>                <dbl>
##  1 ID                    1   
##  2 Wellbeing             3.55
##  3 Extraversion          3.98
##  4 Neuroticism           2.15
##  5 Conscientiousness     3.34
##  6 Openness              2.44
##  7 ID                    2   
##  8 Wellbeing             3.82
##  9 Extraversion          3.29
## 10 Neuroticism           2.83
## # ℹ 50 more rows
…
Let’s convert df_clean to the long data format and let’s call it df_clean_long. But we are not going to follow the same protocol as the last example, where we pivoted everything except ID. For this data frame, we are going put every variable inside the cols argument except for ID, condition, and gender.

df_clean_long <- pivot_longer(df_clean,
  cols = c(age, remote_pos:mean_openness), #we select age, and then we select everything from remote_pos to mean_openness in df_clean
  names_to = "Variable", #this creates a column called `variables` that will tell us the the variable the participant provided data for
  values_to = "Response"#this creates a column called `answer` that will tell us participants actual answer to each variable
)

print(df_clean_long)

## # A tibble: 266 × 5
##          ID condition gender Variable       Response
##       <int> <chr>     <chr>  <chr>             <dbl>
##  1 10229436 CAB       male   age                26  
##  2 10229436 CAB       male   remote_pos          0  
##  3 10229436 CAB       male   remote_neg          2  
##  4 10229436 CAB       male   remote_neut         4  
##  5 10229436 CAB       male   total_mood         61  
##  6 10229436 CAB       male   total_openness     16  
##  7 10229436 CAB       male   mean_openness       3.2
##  8 10230533 CAB       female age                36  
##  9 10230533 CAB       female remote_pos          0  
## 10 10230533 CAB       female remote_neg          4  
## # ℹ 256 more rows
…
## Error in `pivot_longer()`:
## ! Can't combine `condition` <character> and `age` <integer>.

If you’re stubborn and you insist on pivoting everything, then you would need to convert all of our columns to the same data type. There is an argument in the pivot_longer() function that enables us to do this and it is called values_transform. The easiest solution would be to transform everything that will go in our Answer vector/column into a character.

pivot_longer(df_clean,
  cols = condition:mean_openness, 
  names_to = "Variable", 
  values_to = "Response",
  values_transform = list(Response = as.character)
  )

## # A tibble: 342 × 3
##          ID Variable       Response
##       <int> <chr>          <chr>   
##  1 10229436 condition      CAB     
##  2 10229436 age            26      
##  3 10229436 gender         male    
##  4 10229436 remote_pos     0       
##  5 10229436 remote_neg     2       
##  6 10229436 remote_neut    4       
##  7 10229436 total_mood     61      
##  8 10229436 total_openness 16      
##  9 10229436 mean_openness  3.2     
## 10 10230533 condition      CAB     
## # ℹ 332 more rows
…
